\relax 
\providecommand\hyper@newdestlabel[2]{}
\providecommand\HyperFirstAtBeginDocument{\AtBeginDocument}
\HyperFirstAtBeginDocument{\ifx\hyper@anchor\@undefined
\global\let\oldcontentsline\contentsline
\gdef\contentsline#1#2#3#4{\oldcontentsline{#1}{#2}{#3}}
\global\let\oldnewlabel\newlabel
\gdef\newlabel#1#2{\newlabelxx{#1}#2}
\gdef\newlabelxx#1#2#3#4#5#6{\oldnewlabel{#1}{{#2}{#3}}}
\AtEndDocument{\ifx\hyper@anchor\@undefined
\let\contentsline\oldcontentsline
\let\newlabel\oldnewlabel
\fi}
\fi}
\global\let\hyper@last\relax 
\gdef\HyperFirstAtBeginDocument#1{#1}
\providecommand\HyField@AuxAddToFields[1]{}
\providecommand\HyField@AuxAddToCoFields[2]{}
\providecommand \oddpage@label [2]{}
\@writefile{toc}{\contentsline {section}{\numberline {1}Problem Set 3 - Planetary motion, Part II}{1}{section.1}}
\newlabel{problem-set-3---planetary-motion-part-ii}{{1}{1}{Problem Set 3 - Planetary motion, Part II}{section.1}{}}
\@writefile{toc}{\contentsline {section}{\numberline {2} Exercise 2.2: Implementing integrators (?? points, problem numbering continued from demo)}{2}{section.2}}
\newlabel{exercise-2.2-implementing-integrators-points-problem-numbering-continued-from-demo}{{2}{2}{Exercise 2.2: Implementing integrators (?? points, problem numbering continued from demo)}{section.2}{}}
\@writefile{toc}{\contentsline {subsection}{\numberline {2.1}Part A: The \texttt  {Integrator} class}{3}{subsection.2.1}}
\newlabel{part-a-the-integrator-class}{{2.1}{3}{\texorpdfstring {Part A: The \texttt {Integrator} class}{Part A: The Integrator class}}{subsection.2.1}{}}
\@writefile{toc}{\contentsline {subsection}{\numberline {2.2}Part B: The \texttt  {Euler} class}{4}{subsection.2.2}}
\newlabel{part-b-the-euler-class}{{2.2}{4}{\texorpdfstring {Part B: The \texttt {Euler} class}{Part B: The Euler class}}{subsection.2.2}{}}
\@writefile{toc}{\contentsline {section}{\numberline {3} Exercise 2.3: Implementing the universe (?? points)}{6}{section.3}}
\newlabel{exercise-2.3-implementing-the-universe-points}{{3}{6}{Exercise 2.3: Implementing the universe (?? points)}{section.3}{}}
\@writefile{toc}{\contentsline {subsection}{\numberline {3.1} Question:}{8}{subsection.3.1}}
\newlabel{question}{{3.1}{8}{Question:}{subsection.3.1}{}}
\@writefile{toc}{\contentsline {subsubsection}{\numberline {3.1.1}BEGIN SOLUTION}{8}{subsubsection.3.1.1}}
\newlabel{begin-solution}{{3.1.1}{8}{BEGIN SOLUTION}{subsubsection.3.1.1}{}}
\@writefile{toc}{\contentsline {subsubsection}{\numberline {3.1.2}END SOLUTION}{8}{subsubsection.3.1.2}}
\newlabel{end-solution}{{3.1.2}{8}{END SOLUTION}{subsubsection.3.1.2}{}}
\@writefile{toc}{\contentsline {section}{\numberline {4} Exercise 4: Simulating a planetary system (\textasciitilde {}20\%)}{10}{section.4}}
\newlabel{exercise-4-simulating-a-planetary-system-20}{{4}{10}{Exercise 4: Simulating a planetary system (\textasciitilde {}20\%)}{section.4}{}}
