\relax 
\providecommand\hyper@newdestlabel[2]{}
\providecommand\HyperFirstAtBeginDocument{\AtBeginDocument}
\HyperFirstAtBeginDocument{\ifx\hyper@anchor\@undefined
\global\let\oldcontentsline\contentsline
\gdef\contentsline#1#2#3#4{\oldcontentsline{#1}{#2}{#3}}
\global\let\oldnewlabel\newlabel
\gdef\newlabel#1#2{\newlabelxx{#1}#2}
\gdef\newlabelxx#1#2#3#4#5#6{\oldnewlabel{#1}{{#2}{#3}}}
\AtEndDocument{\ifx\hyper@anchor\@undefined
\let\contentsline\oldcontentsline
\let\newlabel\oldnewlabel
\fi}
\fi}
\global\let\hyper@last\relax 
\gdef\HyperFirstAtBeginDocument#1{#1}
\providecommand\HyField@AuxAddToFields[1]{}
\providecommand\HyField@AuxAddToCoFields[2]{}
\providecommand \oddpage@label [2]{}
\@writefile{toc}{\contentsline {section}{\numberline {1}Problem Set 2}{1}{section.1}}
\newlabel{problem-set-2}{{1}{1}{Problem Set 2}{section.1}{}}
\@writefile{toc}{\contentsline {section}{\numberline {2}Objects and Design Patterns}{1}{section.2}}
\newlabel{objects-and-design-patterns}{{2}{1}{Objects and Design Patterns}{section.2}{}}
\@writefile{toc}{\contentsline {section}{\numberline {3} Exercise 1: Implementing planets (\textasciitilde {}20\%)}{2}{section.3}}
\newlabel{exercise-1-implementing-planets-20}{{3}{2}{Exercise 1: Implementing planets (\textasciitilde {}20\%)}{section.3}{}}
\@writefile{toc}{\contentsline {subsection}{\numberline {3.1}Part 1: The Particle Builder}{2}{subsection.3.1}}
\newlabel{part-1-the-particle-builder}{{3.1}{2}{Part 1: The Particle Builder}{subsection.3.1}{}}
\@writefile{toc}{\contentsline {section}{\numberline {4} Exercise 2: Implementing integrators (\textasciitilde {}20\%)}{6}{section.4}}
\newlabel{exercise-2-implementing-integrators-20}{{4}{6}{Exercise 2: Implementing integrators (\textasciitilde {}20\%)}{section.4}{}}
\@writefile{toc}{\contentsline {section}{\numberline {5} Exercise 3: Implementing the universe (\textasciitilde {}40\%)}{10}{section.5}}
\newlabel{exercise-3-implementing-the-universe-40}{{5}{10}{Exercise 3: Implementing the universe (\textasciitilde {}40\%)}{section.5}{}}
\@writefile{toc}{\contentsline {subsection}{\numberline {5.1} Question:}{12}{subsection.5.1}}
\newlabel{question}{{5.1}{12}{Question:}{subsection.5.1}{}}
\@writefile{toc}{\contentsline {subsubsection}{\numberline {5.1.1}BEGIN SOLUTION}{12}{subsubsection.5.1.1}}
\newlabel{begin-solution}{{5.1.1}{12}{BEGIN SOLUTION}{subsubsection.5.1.1}{}}
\@writefile{toc}{\contentsline {subsection}{\numberline {5.2} Question:}{14}{subsection.5.2}}
\newlabel{question}{{5.2}{14}{Question:}{subsection.5.2}{}}
\@writefile{toc}{\contentsline {subsubsection}{\numberline {5.2.1}BEGIN SOLUTION}{14}{subsubsection.5.2.1}}
\newlabel{begin-solution}{{5.2.1}{14}{BEGIN SOLUTION}{subsubsection.5.2.1}{}}
\@writefile{toc}{\contentsline {subsubsection}{\numberline {5.2.2}END SOLUTION}{14}{subsubsection.5.2.2}}
\newlabel{end-solution}{{5.2.2}{14}{END SOLUTION}{subsubsection.5.2.2}{}}
\@writefile{toc}{\contentsline {section}{\numberline {6} Exercise 4: Simulating a planetary system (\textasciitilde {}20\%)}{17}{section.6}}
\newlabel{exercise-4-simulating-a-planetary-system-20}{{6}{17}{Exercise 4: Simulating a planetary system (\textasciitilde {}20\%)}{section.6}{}}
