\relax 
\providecommand\hyper@newdestlabel[2]{}
\providecommand\HyperFirstAtBeginDocument{\AtBeginDocument}
\HyperFirstAtBeginDocument{\ifx\hyper@anchor\@undefined
\global\let\oldcontentsline\contentsline
\gdef\contentsline#1#2#3#4{\oldcontentsline{#1}{#2}{#3}}
\global\let\oldnewlabel\newlabel
\gdef\newlabel#1#2{\newlabelxx{#1}#2}
\gdef\newlabelxx#1#2#3#4#5#6{\oldnewlabel{#1}{{#2}{#3}}}
\AtEndDocument{\ifx\hyper@anchor\@undefined
\let\contentsline\oldcontentsline
\let\newlabel\oldnewlabel
\fi}
\fi}
\global\let\hyper@last\relax 
\gdef\HyperFirstAtBeginDocument#1{#1}
\providecommand\HyField@AuxAddToFields[1]{}
\providecommand\HyField@AuxAddToCoFields[2]{}
\providecommand \oddpage@label [2]{}
\@writefile{toc}{\contentsline {section}{\numberline {1}Demo 2 - Writing, reading and visualizing data}{1}{section.1}}
\newlabel{demo-2---writing-reading-and-visualizing-data}{{1}{1}{Demo 2 - Writing, reading and visualizing data}{section.1}{}}
\gdef \LT@i {\LT@entry 
    {1}{236.18253pt}\LT@entry 
    {1}{217.38834pt}}
\@writefile{toc}{\contentsline {subsection}{\numberline {1.1}Introduction to I/O in python}{2}{subsection.1.1}}
\newlabel{introduction-to-io-in-python}{{1.1}{2}{Introduction to I/O in python}{subsection.1.1}{}}
\@writefile{toc}{\contentsline {subsubsection}{\numberline {1.1.1}Basic I/O from command line.}{2}{subsubsection.1.1.1}}
\newlabel{basic-io-from-command-line.}{{1.1.1}{2}{Basic I/O from command line}{subsubsection.1.1.1}{}}
\@writefile{toc}{\contentsline {subsubsection}{\numberline {1.1.2}To do\ldots  {}}{3}{subsubsection.1.1.2}}
\newlabel{to-do}{{1.1.2}{3}{To do\ldots {}}{subsubsection.1.1.2}{}}
\gdef \LT@ii {\LT@entry 
    {1}{34.27267pt}\LT@entry 
    {2}{317.60005pt}}
\@writefile{toc}{\contentsline {subsection}{\numberline {1.2}Writing/reading into/from files}{4}{subsection.1.2}}
\newlabel{writingreading-intofrom-files}{{1.2}{4}{Writing/reading into/from files}{subsection.1.2}{}}
\@writefile{toc}{\contentsline {subsection}{\numberline {1.3} Exercise 2.1: Writing random numbers into a file (16\%)}{5}{subsection.1.3}}
\newlabel{exercise-2.1-writing-random-numbers-into-a-file-16}{{1.3}{5}{Exercise 2.1: Writing random numbers into a file (16\%)}{subsection.1.3}{}}
\@writefile{toc}{\contentsline {subsection}{\numberline {1.4} Exercise 2.2: Reading random numbers from a file (8\%)}{8}{subsection.1.4}}
\newlabel{exercise-2.2-reading-random-numbers-from-a-file-8}{{1.4}{8}{Exercise 2.2: Reading random numbers from a file (8\%)}{subsection.1.4}{}}
\gdef \LT@iii {\LT@entry 
    {1}{109.34666pt}\LT@entry 
    {1}{115.34666pt}\LT@entry 
    {1}{115.34666pt}\LT@entry 
    {1}{109.34666pt}}
\@writefile{toc}{\contentsline {section}{\numberline {2} Exercise 2.3: Visualizing environmental and economic data (76\%)}{9}{section.2}}
\newlabel{exercise-2.3-visualizing-environmental-and-economic-data-76}{{2}{9}{Exercise 2.3: Visualizing environmental and economic data (76\%)}{section.2}{}}
\@writefile{toc}{\contentsline {subsection}{\numberline {2.1} Question:}{10}{subsection.2.1}}
\newlabel{question}{{2.1}{10}{Question:}{subsection.2.1}{}}
\@writefile{toc}{\contentsline {subsubsection}{\numberline {2.1.1}BEGIN SOLUTION}{10}{subsubsection.2.1.1}}
\newlabel{begin-solution}{{2.1.1}{10}{BEGIN SOLUTION}{subsubsection.2.1.1}{}}
\@writefile{toc}{\contentsline {subsection}{\numberline {2.2}Parsing the first line of the file (years)}{11}{subsection.2.2}}
\newlabel{parsing-the-first-line-of-the-file-years}{{2.2}{11}{Parsing the first line of the file (years)}{subsection.2.2}{}}
\@writefile{toc}{\contentsline {subsection}{\numberline {2.3}Parsing the remaining lines (economic/environmental indicator values)}{12}{subsection.2.3}}
\newlabel{parsing-the-remaining-lines-economicenvironmental-indicator-values}{{2.3}{12}{Parsing the remaining lines (economic/environmental indicator values)}{subsection.2.3}{}}
\@writefile{toc}{\contentsline {subsection}{\numberline {2.4}Visualizing the data}{14}{subsection.2.4}}
\newlabel{visualizing-the-data}{{2.4}{14}{Visualizing the data}{subsection.2.4}{}}
\@writefile{toc}{\contentsline {subsection}{\numberline {2.5}Analyzing the data}{16}{subsection.2.5}}
\newlabel{analyzing-the-data}{{2.5}{16}{Analyzing the data}{subsection.2.5}{}}
\@writefile{toc}{\contentsline {subsection}{\numberline {2.6} Question:}{17}{subsection.2.6}}
\newlabel{question}{{2.6}{17}{Question:}{subsection.2.6}{}}
\@writefile{toc}{\contentsline {subsection}{\numberline {2.7} Question:}{17}{subsection.2.7}}
\newlabel{question}{{2.7}{17}{Question:}{subsection.2.7}{}}
\@writefile{toc}{\contentsline {section}{\numberline {3}Congratulations, you have completed DEMO2!}{17}{section.3}}
\newlabel{congratulations-you-have-completed-demo2}{{3}{17}{Congratulations, you have completed DEMO2!}{section.3}{}}
