\relax 
\providecommand\hyper@newdestlabel[2]{}
\providecommand\HyperFirstAtBeginDocument{\AtBeginDocument}
\HyperFirstAtBeginDocument{\ifx\hyper@anchor\@undefined
\global\let\oldcontentsline\contentsline
\gdef\contentsline#1#2#3#4{\oldcontentsline{#1}{#2}{#3}}
\global\let\oldnewlabel\newlabel
\gdef\newlabel#1#2{\newlabelxx{#1}#2}
\gdef\newlabelxx#1#2#3#4#5#6{\oldnewlabel{#1}{{#2}{#3}}}
\AtEndDocument{\ifx\hyper@anchor\@undefined
\let\contentsline\oldcontentsline
\let\newlabel\oldnewlabel
\fi}
\fi}
\global\let\hyper@last\relax 
\gdef\HyperFirstAtBeginDocument#1{#1}
\providecommand\HyField@AuxAddToFields[1]{}
\providecommand\HyField@AuxAddToCoFields[2]{}
\providecommand \oddpage@label [2]{}
\@writefile{toc}{\contentsline {section}{\numberline {1}Problem Set 0}{1}{section.1}}
\newlabel{problem-set-0}{{1}{1}{Problem Set 0}{section.1}{}}
\@writefile{toc}{\contentsline {section}{\numberline {2}Shooting hoops in basketball}{1}{section.2}}
\newlabel{shooting-hoops-in-basketball}{{2}{1}{Shooting hoops in basketball}{section.2}{}}
\@writefile{toc}{\contentsline {subsection}{\numberline {2.1}Part 1 (1pt): Defining parameters}{1}{subsection.2.1}}
\newlabel{part-1-1pt-defining-parameters}{{2.1}{1}{Part 1 (1pt): Defining parameters}{subsection.2.1}{}}
\@writefile{toc}{\contentsline {subsection}{\numberline {2.2}Part 2 (1pt): Changing from degrees}{1}{subsection.2.2}}
\newlabel{part-2-1pt-changing-from-degrees}{{2.2}{1}{Part 2 (1pt): Changing from degrees}{subsection.2.2}{}}
\@writefile{toc}{\contentsline {subsection}{\numberline {2.3}Part 3 (1pt): Calculating time}{3}{subsection.2.3}}
\newlabel{part-3-1pt-calculating-time}{{2.3}{3}{Part 3 (1pt): Calculating time}{subsection.2.3}{}}
\@writefile{toc}{\contentsline {subsection}{\numberline {2.4}Part 4 (1pt): Getting final positions}{5}{subsection.2.4}}
\newlabel{part-4-1pt-getting-final-positions}{{2.4}{5}{Part 4 (1pt): Getting final positions}{subsection.2.4}{}}
\@writefile{toc}{\contentsline {subsection}{\numberline {2.5}Part 5 (1pt): Checking success}{7}{subsection.2.5}}
\newlabel{part-5-1pt-checking-success}{{2.5}{7}{Part 5 (1pt): Checking success}{subsection.2.5}{}}
\@writefile{toc}{\contentsline {subsection}{\numberline {2.6}Part 5: Joining all function}{8}{subsection.2.6}}
\newlabel{part-5-joining-all-function}{{2.6}{8}{Part 5: Joining all function}{subsection.2.6}{}}
\@writefile{toc}{\contentsline {subsection}{\numberline {2.7} Question (1pt):}{9}{subsection.2.7}}
\newlabel{question-1pt}{{2.7}{9}{Question (1pt):}{subsection.2.7}{}}
\@writefile{toc}{\contentsline {subsubsection}{\numberline {2.7.1}BEGIN SOLUTION}{9}{subsubsection.2.7.1}}
\newlabel{begin-solution}{{2.7.1}{9}{BEGIN SOLUTION}{subsubsection.2.7.1}{}}
\@writefile{toc}{\contentsline {subsection}{\numberline {2.8} Extra: Let's see the trajectory}{9}{subsection.2.8}}
\newlabel{extra-lets-see-the-trajectory}{{2.8}{9}{Extra: Let's see the trajectory}{subsection.2.8}{}}
