\relax 
\providecommand\hyper@newdestlabel[2]{}
\providecommand\HyperFirstAtBeginDocument{\AtBeginDocument}
\HyperFirstAtBeginDocument{\ifx\hyper@anchor\@undefined
\global\let\oldcontentsline\contentsline
\gdef\contentsline#1#2#3#4{\oldcontentsline{#1}{#2}{#3}}
\global\let\oldnewlabel\newlabel
\gdef\newlabel#1#2{\newlabelxx{#1}#2}
\gdef\newlabelxx#1#2#3#4#5#6{\oldnewlabel{#1}{{#2}{#3}}}
\AtEndDocument{\ifx\hyper@anchor\@undefined
\let\contentsline\oldcontentsline
\let\newlabel\oldnewlabel
\fi}
\fi}
\global\let\hyper@last\relax 
\gdef\HyperFirstAtBeginDocument#1{#1}
\providecommand\HyField@AuxAddToFields[1]{}
\providecommand\HyField@AuxAddToCoFields[2]{}
\providecommand \oddpage@label [2]{}
\@writefile{toc}{\contentsline {section}{\numberline {1}Problem Set 1}{1}{section.1}}
\newlabel{problem-set-1}{{1}{1}{Problem Set 1}{section.1}{}}
\@writefile{toc}{\contentsline {section}{\numberline {2}Debugging and introduction to algorithms.}{1}{section.2}}
\newlabel{debugging-and-introduction-to-algorithms.}{{2}{1}{Debugging and introduction to algorithms}{section.2}{}}
\@writefile{toc}{\contentsline {section}{\numberline {3} Python modules}{1}{section.3}}
\newlabel{python-modules}{{3}{1}{Python modules}{section.3}{}}
\@writefile{toc}{\contentsline {subsection}{\numberline {3.1} Help!}{1}{subsection.3.1}}
\newlabel{help}{{3.1}{1}{Help!}{subsection.3.1}{}}
\@writefile{toc}{\contentsline {section}{\numberline {4} Debugging}{2}{section.4}}
\newlabel{debugging}{{4}{2}{Debugging}{section.4}{}}
\@writefile{toc}{\contentsline {section}{\numberline {5} Exercise: debugging (40\%)}{10}{section.5}}
\newlabel{exercise-debugging-40}{{5}{10}{Exercise: debugging (40\%)}{section.5}{}}
\@writefile{toc}{\contentsline {subsection}{\numberline {5.1}Part 1: Fix the bubble sort algorithm.}{10}{subsection.5.1}}
\newlabel{part-1-fix-the-bubble-sort-algorithm.}{{5.1}{10}{Part 1: Fix the bubble sort algorithm}{subsection.5.1}{}}
\@writefile{toc}{\contentsline {subsection}{\numberline {5.2} Question:}{11}{subsection.5.2}}
\newlabel{question}{{5.2}{11}{Question:}{subsection.5.2}{}}
\@writefile{toc}{\contentsline {subsubsection}{\numberline {5.2.1}BEGIN SOLUTION}{11}{subsubsection.5.2.1}}
\newlabel{begin-solution}{{5.2.1}{11}{BEGIN SOLUTION}{subsubsection.5.2.1}{}}
\@writefile{toc}{\contentsline {subsubsection}{\numberline {5.2.2}END SOLUTION}{11}{subsubsection.5.2.2}}
\newlabel{end-solution}{{5.2.2}{11}{END SOLUTION}{subsubsection.5.2.2}{}}
\@writefile{toc}{\contentsline {subsection}{\numberline {5.3}Part 2: Approximating the cosine function (cos(x))}{11}{subsection.5.3}}
\newlabel{part-2-approximating-the-cosine-function-cosx}{{5.3}{11}{Part 2: Approximating the cosine function (cos(x))}{subsection.5.3}{}}
\@writefile{toc}{\contentsline {subsection}{\numberline {5.4} Question:}{13}{subsection.5.4}}
\newlabel{question}{{5.4}{13}{Question:}{subsection.5.4}{}}
\@writefile{toc}{\contentsline {subsubsection}{\numberline {5.4.1}BEGIN SOLUTION}{13}{subsubsection.5.4.1}}
\newlabel{begin-solution}{{5.4.1}{13}{BEGIN SOLUTION}{subsubsection.5.4.1}{}}
\@writefile{toc}{\contentsline {subsubsection}{\numberline {5.4.2}END SOLUTION}{13}{subsubsection.5.4.2}}
\newlabel{end-solution}{{5.4.2}{13}{END SOLUTION}{subsubsection.5.4.2}{}}
\@writefile{toc}{\contentsline {section}{\numberline {6} Exercise: improving your cosine function (60\%)}{14}{section.6}}
\newlabel{exercise-improving-your-cosine-function-60}{{6}{14}{Exercise: improving your cosine function (60\%)}{section.6}{}}
\@writefile{toc}{\contentsline {subsection}{\numberline {6.1}Part 1: Big numbers}{14}{subsection.6.1}}
\newlabel{part-1-big-numbers}{{6.1}{14}{Part 1: Big numbers}{subsection.6.1}{}}
\@writefile{toc}{\contentsline {subsection}{\numberline {6.2} Question:}{16}{subsection.6.2}}
\newlabel{question}{{6.2}{16}{Question:}{subsection.6.2}{}}
\@writefile{toc}{\contentsline {subsubsection}{\numberline {6.2.1}BEGIN SOLUTION}{16}{subsubsection.6.2.1}}
\newlabel{begin-solution}{{6.2.1}{16}{BEGIN SOLUTION}{subsubsection.6.2.1}{}}
\@writefile{toc}{\contentsline {subsubsection}{\numberline {6.2.2}END SOLUTION}{16}{subsubsection.6.2.2}}
\newlabel{end-solution}{{6.2.2}{16}{END SOLUTION}{subsubsection.6.2.2}{}}
\@writefile{toc}{\contentsline {subsection}{\numberline {6.3}Part 2: Floating point and machine precision}{17}{subsection.6.3}}
\newlabel{part-2-floating-point-and-machine-precision}{{6.3}{17}{Part 2: Floating point and machine precision}{subsection.6.3}{}}
\@writefile{toc}{\contentsline {subsection}{\numberline {6.4} Question:}{17}{subsection.6.4}}
\newlabel{question}{{6.4}{17}{Question:}{subsection.6.4}{}}
\@writefile{toc}{\contentsline {subsection}{\numberline {6.5}Part 3: Evaluating performance}{19}{subsection.6.5}}
\newlabel{part-3-evaluating-performance}{{6.5}{19}{Part 3: Evaluating performance}{subsection.6.5}{}}
\@writefile{toc}{\contentsline {subsection}{\numberline {6.6}Part 4: Final improvement}{23}{subsection.6.6}}
\newlabel{part-4-final-improvement}{{6.6}{23}{Part 4: Final improvement}{subsection.6.6}{}}
\@writefile{toc}{\contentsline {subsection}{\numberline {6.7} Question:}{23}{subsection.6.7}}
\newlabel{question}{{6.7}{23}{Question:}{subsection.6.7}{}}
\@writefile{toc}{\contentsline {subsubsection}{\numberline {6.7.1}BEGIN SOLUTION}{23}{subsubsection.6.7.1}}
\newlabel{begin-solution}{{6.7.1}{23}{BEGIN SOLUTION}{subsubsection.6.7.1}{}}
\@writefile{toc}{\contentsline {section}{\numberline {7}Good job, you have completed problem set 1!}{27}{section.7}}
\newlabel{good-job-you-have-completed-problem-set-1}{{7}{27}{Good job, you have completed problem set 1!}{section.7}{}}
