\relax 
\providecommand\hyper@newdestlabel[2]{}
\providecommand\HyperFirstAtBeginDocument{\AtBeginDocument}
\HyperFirstAtBeginDocument{\ifx\hyper@anchor\@undefined
\global\let\oldcontentsline\contentsline
\gdef\contentsline#1#2#3#4{\oldcontentsline{#1}{#2}{#3}}
\global\let\oldnewlabel\newlabel
\gdef\newlabel#1#2{\newlabelxx{#1}#2}
\gdef\newlabelxx#1#2#3#4#5#6{\oldnewlabel{#1}{{#2}{#3}}}
\AtEndDocument{\ifx\hyper@anchor\@undefined
\let\contentsline\oldcontentsline
\let\newlabel\oldnewlabel
\fi}
\fi}
\global\let\hyper@last\relax 
\gdef\HyperFirstAtBeginDocument#1{#1}
\providecommand\HyField@AuxAddToFields[1]{}
\providecommand\HyField@AuxAddToCoFields[2]{}
\providecommand \oddpage@label [2]{}
\@writefile{toc}{\contentsline {section}{\numberline {1}Problem set 2 - Part A}{1}{section.1}}
\newlabel{problem-set-2---part-a}{{1}{1}{Problem set 2 - Part A}{section.1}{}}
\@writefile{toc}{\contentsline {section}{\numberline {2}Advanced data visualization}{1}{section.2}}
\newlabel{advanced-data-visualization}{{2}{1}{Advanced data visualization}{section.2}{}}
\@writefile{toc}{\contentsline {subsection}{\numberline {2.1} Exercise 2.1: Use the csv module (\textasciitilde {}5\%)}{1}{subsection.2.1}}
\newlabel{exercise-2.1-use-the-csv-module-5}{{2.1}{1}{Exercise 2.1: Use the csv module (\textasciitilde {}5\%)}{subsection.2.1}{}}
\@writefile{toc}{\contentsline {subsection}{\numberline {2.2} Exercise 2.2: Visualize data \emph  {a la} Gapminder (\textasciitilde {}25\%)}{3}{subsection.2.2}}
\newlabel{exercise-2.2-visualize-data-a-la-gapminder-25}{{2.2}{3}{\texorpdfstring { Exercise 2.2: Visualize data \emph {a la} Gapminder (\textasciitilde {}25\%)}{ Exercise 2.2: Visualize data a la Gapminder (\textasciitilde {}25\%)}}{subsection.2.2}{}}
\@writefile{toc}{\contentsline {subsection}{\numberline {2.3}Test the Gapminder Emulator!}{4}{subsection.2.3}}
\newlabel{test-the-gapminder-emulator}{{2.3}{4}{Test the Gapminder Emulator!}{subsection.2.3}{}}
\@writefile{toc}{\contentsline {subsection}{\numberline {2.4}There is always room for improvement}{6}{subsection.2.4}}
\newlabel{there-is-always-room-for-improvement}{{2.4}{6}{There is always room for improvement}{subsection.2.4}{}}
\@writefile{toc}{\contentsline {subsubsection}{\numberline {2.4.1}Question (2 points)}{6}{subsubsection.2.4.1}}
\newlabel{question-2-points}{{2.4.1}{6}{Question (2 points)}{subsubsection.2.4.1}{}}
\@writefile{toc}{\contentsline {subsubsection}{\numberline {2.4.2}BEGIN SOLUTION}{6}{subsubsection.2.4.2}}
\newlabel{begin-solution}{{2.4.2}{6}{BEGIN SOLUTION}{subsubsection.2.4.2}{}}
\@writefile{toc}{\contentsline {subsubsection}{\numberline {2.4.3}END SOLUTION}{6}{subsubsection.2.4.3}}
\newlabel{end-solution}{{2.4.3}{6}{END SOLUTION}{subsubsection.2.4.3}{}}
\@writefile{toc}{\contentsline {subsection}{\numberline {2.5} Exercise 2.3: Visualization of molecules}{6}{subsection.2.5}}
\newlabel{exercise-2.3-visualization-of-molecules}{{2.5}{6}{Exercise 2.3: Visualization of molecules}{subsection.2.5}{}}
\@writefile{toc}{\contentsline {subsection}{\numberline {2.6}Implementing a molecule visualizer}{8}{subsection.2.6}}
\newlabel{implementing-a-molecule-visualizer}{{2.6}{8}{Implementing a molecule visualizer}{subsection.2.6}{}}
\@writefile{toc}{\contentsline {section}{\numberline {3}Good job, you have finished Problem Set 2! You have plotted economic and environmental data in fancy ways and even visualized a complex molecule. This is starting to get fun!}{10}{section.3}}
\newlabel{good-job-you-have-finished-problem-set-2-you-have-plotted-economic-and-environmental-data-in-fancy-ways-and-even-visualized-a-complex-molecule.-this-is-starting-to-get-fun}{{3}{10}{Good job, you have finished Problem Set 2! You have plotted economic and environmental data in fancy ways and even visualized a complex molecule. This is starting to get fun!}{section.3}{}}
