\relax 
\providecommand\hyper@newdestlabel[2]{}
\providecommand\HyperFirstAtBeginDocument{\AtBeginDocument}
\HyperFirstAtBeginDocument{\ifx\hyper@anchor\@undefined
\global\let\oldcontentsline\contentsline
\gdef\contentsline#1#2#3#4{\oldcontentsline{#1}{#2}{#3}}
\global\let\oldnewlabel\newlabel
\gdef\newlabel#1#2{\newlabelxx{#1}#2}
\gdef\newlabelxx#1#2#3#4#5#6{\oldnewlabel{#1}{{#2}{#3}}}
\AtEndDocument{\ifx\hyper@anchor\@undefined
\let\contentsline\oldcontentsline
\let\newlabel\oldnewlabel
\fi}
\fi}
\global\let\hyper@last\relax 
\gdef\HyperFirstAtBeginDocument#1{#1}
\providecommand\HyField@AuxAddToFields[1]{}
\providecommand\HyField@AuxAddToCoFields[2]{}
\providecommand \oddpage@label [2]{}
\@writefile{toc}{\contentsline {section}{\numberline {1}Demo 1}{1}{section.1}}
\newlabel{demo-1}{{1}{1}{Demo 1}{section.1}{}}
\@writefile{toc}{\contentsline {section}{\numberline {2}What is the cost of my algorithm?}{1}{section.2}}
\newlabel{what-is-the-cost-of-my-algorithm}{{2}{1}{What is the cost of my algorithm?}{section.2}{}}
\@writefile{toc}{\contentsline {section}{\numberline {3} Arrays}{1}{section.3}}
\newlabel{arrays}{{3}{1}{Arrays}{section.3}{}}
\@writefile{toc}{\contentsline {subsection}{\numberline {3.1}Array utilities}{2}{subsection.3.1}}
\newlabel{array-utilities}{{3.1}{2}{Array utilities}{subsection.3.1}{}}
\@writefile{toc}{\contentsline {subsection}{\numberline {3.2}Sampling from a list}{3}{subsection.3.2}}
\newlabel{sampling-from-a-list}{{3.2}{3}{Sampling from a list}{subsection.3.2}{}}
\@writefile{toc}{\contentsline {section}{\numberline {4} Basic Plotting}{3}{section.4}}
\newlabel{basic-plotting}{{4}{3}{Basic Plotting}{section.4}{}}
\@writefile{toc}{\contentsline {subsection}{\numberline {4.1} Histograms}{4}{subsection.4.1}}
\newlabel{histograms}{{4.1}{4}{Histograms}{subsection.4.1}{}}
\@writefile{toc}{\contentsline {section}{\numberline {5} Exercise: analyzing the performance of an algorithm. Case study: Fibonacci numbers.}{4}{section.5}}
\newlabel{exercise-analyzing-the-performance-of-an-algorithm.-case-study-fibonacci-numbers.}{{5}{4}{Exercise: analyzing the performance of an algorithm. Case study: Fibonacci numbers}{section.5}{}}
\@writefile{toc}{\contentsline {subsection}{\numberline {5.1}Part 1: Use recursion}{4}{subsection.5.1}}
\newlabel{part-1-use-recursion}{{5.1}{4}{Part 1: Use recursion}{subsection.5.1}{}}
\@writefile{toc}{\contentsline {subsection}{\numberline {5.2} Question (1pt):}{5}{subsection.5.2}}
\newlabel{question-1pt}{{5.2}{5}{Question (1pt):}{subsection.5.2}{}}
\@writefile{toc}{\contentsline {subsubsection}{\numberline {5.2.1}BEGIN SOLUTION}{6}{subsubsection.5.2.1}}
\newlabel{begin-solution}{{5.2.1}{6}{BEGIN SOLUTION}{subsubsection.5.2.1}{}}
\@writefile{toc}{\contentsline {subsection}{\numberline {5.3}Part 2: testing the efficiency of my code.}{6}{subsection.5.3}}
\newlabel{part-2-testing-the-efficiency-of-my-code.}{{5.3}{6}{Part 2: testing the efficiency of my code}{subsection.5.3}{}}
\@writefile{toc}{\contentsline {subsection}{\numberline {5.4} Question (1pt):}{8}{subsection.5.4}}
\newlabel{question-1pt}{{5.4}{8}{Question (1pt):}{subsection.5.4}{}}
\@writefile{toc}{\contentsline {subsubsection}{\numberline {5.4.1}BEGIN ANSWER}{8}{subsubsection.5.4.1}}
\newlabel{begin-answer}{{5.4.1}{8}{BEGIN ANSWER}{subsubsection.5.4.1}{}}
\@writefile{toc}{\contentsline {subsection}{\numberline {5.5}Part 2: Dynamic programming and memoization}{8}{subsection.5.5}}
\newlabel{part-2-dynamic-programming-and-memoization}{{5.5}{8}{Part 2: Dynamic programming and memoization}{subsection.5.5}{}}
\@writefile{toc}{\contentsline {subsection}{\numberline {5.6} Question (1pt):}{10}{subsection.5.6}}
\newlabel{question-1pt}{{5.6}{10}{Question (1pt):}{subsection.5.6}{}}
\@writefile{toc}{\contentsline {subsubsection}{\numberline {5.6.1}BEGIN SOLUTION}{10}{subsubsection.5.6.1}}
\newlabel{begin-solution}{{5.6.1}{10}{BEGIN SOLUTION}{subsubsection.5.6.1}{}}
\@writefile{toc}{\contentsline {subsection}{\numberline {5.7}Part 3: Don't forget the memory.}{10}{subsection.5.7}}
\newlabel{part-3-dont-forget-the-memory.}{{5.7}{10}{Part 3: Don't forget the memory}{subsection.5.7}{}}
\@writefile{toc}{\contentsline {subsection}{\numberline {5.8}Final remarks}{11}{subsection.5.8}}
\newlabel{final-remarks}{{5.8}{11}{Final remarks}{subsection.5.8}{}}
