\relax 
\providecommand\hyper@newdestlabel[2]{}
\providecommand\HyperFirstAtBeginDocument{\AtBeginDocument}
\HyperFirstAtBeginDocument{\ifx\hyper@anchor\@undefined
\global\let\oldcontentsline\contentsline
\gdef\contentsline#1#2#3#4{\oldcontentsline{#1}{#2}{#3}}
\global\let\oldnewlabel\newlabel
\gdef\newlabel#1#2{\newlabelxx{#1}#2}
\gdef\newlabelxx#1#2#3#4#5#6{\oldnewlabel{#1}{{#2}{#3}}}
\AtEndDocument{\ifx\hyper@anchor\@undefined
\let\contentsline\oldcontentsline
\let\newlabel\oldnewlabel
\fi}
\fi}
\global\let\hyper@last\relax 
\gdef\HyperFirstAtBeginDocument#1{#1}
\providecommand\HyField@AuxAddToFields[1]{}
\providecommand\HyField@AuxAddToCoFields[2]{}
\providecommand \oddpage@label [2]{}
\@writefile{toc}{\contentsline {section}{\numberline {1}Demo 3 - Object-oriented programming (OOP)}{1}{section.1}}
\newlabel{demo-3---object-oriented-programming-oop}{{1}{1}{Demo 3 - Object-oriented programming (OOP)}{section.1}{}}
\@writefile{toc}{\contentsline {section}{\numberline {2} Introduction to Classes}{1}{section.2}}
\newlabel{introduction-to-classes}{{2}{1}{Introduction to Classes}{section.2}{}}
\@writefile{toc}{\contentsline {section}{\numberline {3} Exercise 1: Implementing a random number generator (13 points)}{2}{section.3}}
\newlabel{exercise-1-implementing-a-random-number-generator-13-points}{{3}{2}{Exercise 1: Implementing a random number generator (13 points)}{section.3}{}}
\@writefile{toc}{\contentsline {subsubsection}{\numberline {3.0.1}BEGIN SOLUTION}{2}{subsubsection.3.0.1}}
\newlabel{begin-solution}{{3.0.1}{2}{BEGIN SOLUTION}{subsubsection.3.0.1}{}}
\@writefile{toc}{\contentsline {subsection}{\numberline {3.1}Constructor}{2}{subsection.3.1}}
\newlabel{constructor}{{3.1}{2}{Constructor}{subsection.3.1}{}}
\@writefile{toc}{\contentsline {subsection}{\numberline {3.2}Class method}{4}{subsection.3.2}}
\newlabel{class-method}{{3.2}{4}{Class method}{subsection.3.2}{}}
\@writefile{toc}{\contentsline {subsubsection}{\numberline {3.2.1}BEGIN SOLUTION}{5}{subsubsection.3.2.1}}
\newlabel{begin-solution}{{3.2.1}{5}{BEGIN SOLUTION}{subsubsection.3.2.1}{}}
\@writefile{toc}{\contentsline {subsubsection}{\numberline {3.2.2}BEGIN SOLUTION}{6}{subsubsection.3.2.2}}
\newlabel{begin-solution}{{3.2.2}{6}{BEGIN SOLUTION}{subsubsection.3.2.2}{}}
\@writefile{toc}{\contentsline {section}{\numberline {4} Exercise 2: Planetary motion, Part I (?? points)}{6}{section.4}}
\newlabel{exercise-2-planetary-motion-part-i-points}{{4}{6}{Exercise 2: Planetary motion, Part I (?? points)}{section.4}{}}
\@writefile{toc}{\contentsline {section}{\numberline {5} Exercise 2.1: Implementing planets (?? points)}{7}{section.5}}
\newlabel{exercise-2.1-implementing-planets-points}{{5}{7}{Exercise 2.1: Implementing planets (?? points)}{section.5}{}}
\@writefile{toc}{\contentsline {subsection}{\numberline {5.1}Part A: The particle constructor}{7}{subsection.5.1}}
\newlabel{part-a-the-particle-constructor}{{5.1}{7}{Part A: The particle constructor}{subsection.5.1}{}}
\@writefile{toc}{\contentsline {subsection}{\numberline {5.2}Part B: Defying, \ldots  {} errr, defining gravity}{8}{subsection.5.2}}
\newlabel{part-b-defying-errr-defining-gravity}{{5.2}{8}{Part B: Defying, \ldots {} errr, defining gravity}{subsection.5.2}{}}
\@writefile{toc}{\contentsline {subsection}{\numberline {5.3}Part C: Planet subclass}{11}{subsection.5.3}}
\newlabel{part-c-planet-subclass}{{5.3}{11}{Part C: Planet subclass}{subsection.5.3}{}}
\@writefile{toc}{\contentsline {section}{\numberline {6}With this we have finished DEMO3. We will now move on to the problem set PS3 and continue coding the planetary motion simulator there.}{12}{section.6}}
\newlabel{with-this-we-have-finished-demo3.-we-will-now-move-on-to-the-problem-set-ps3-and-continue-coding-the-planetary-motion-simulator-there.}{{6}{12}{With this we have finished DEMO3. We will now move on to the problem set PS3 and continue coding the planetary motion simulator there}{section.6}{}}
