\BOOKMARK [1][-]{section.1}{Demo 3 - Object-oriented programming \(OOP\)}{}% 1
\BOOKMARK [1][-]{section.2}{ Introduction to Classes}{}% 2
\BOOKMARK [1][-]{section.3}{ Exercise 1: Implementing a random number generator \(13 points\)}{}% 3
\BOOKMARK [2][-]{subsubsection.3.0.1}{BEGIN SOLUTION}{section.3}% 4
\BOOKMARK [2][-]{subsection.3.1}{Constructor}{section.3}% 5
\BOOKMARK [2][-]{subsection.3.2}{Class method}{section.3}% 6
\BOOKMARK [3][-]{subsubsection.3.2.1}{BEGIN SOLUTION}{subsection.3.2}% 7
\BOOKMARK [3][-]{subsubsection.3.2.2}{BEGIN SOLUTION}{subsection.3.2}% 8
\BOOKMARK [1][-]{section.4}{ Exercise 2: Planetary motion, Part I \(?? points\)}{}% 9
\BOOKMARK [1][-]{section.5}{ Exercise 2.1: Implementing planets \(?? points\)}{}% 10
\BOOKMARK [2][-]{subsection.5.1}{Part A: The particle constructor}{section.5}% 11
\BOOKMARK [2][-]{subsection.5.2}{Part B: Defying, \203 errr, defining gravity}{section.5}% 12
\BOOKMARK [2][-]{subsection.5.3}{Part C: Planet subclass}{section.5}% 13
\BOOKMARK [1][-]{section.6}{With this we have finished DEMO3. We will now move on to the problem set PS3 and continue coding the planetary motion simulator there.}{}% 14
